<?xml version="1.0" encoding="UTF-8"?>
<svg width="20px" height="20px" viewBox="0 0 20 20" version="1.1" xmlns="http://www.w3.org/2000/svg" xmlns:xlink="http://www.w3.org/1999/xlink">
    <!-- Generator: Sketch 41.2 (35397) - http://www.bohemiancoding.com/sketch -->
    <title>plus-button</title>
    <desc>Created with Sketch.</desc>
    <defs></defs>
    <g id="Page-1" stroke="none" stroke-width="1" fill="none" fill-rule="evenodd">
        <g id="Feed" transform="translate(-343.000000, -27.000000)" stroke="#FAA51B" fill="#FAA51B">
            <g id="plus-button" transform="translate(344.000000, 28.000000)">
                <g id="Capa_1">
                    <g id="Group">
                        <path d="M9.22034375,18.4412812 C4.1360625,18.4412812 0,14.304625 0,9.22034375 C0,4.1360625 4.1360625,0 9.22034375,0 C14.304625,0 18.4406875,4.1360625 18.4406875,9.22034375 C18.4412812,14.304625 14.304625,18.4412812 9.22034375,18.4412812 Z M9.22034375,1.0533125 C4.71675,1.0533125 1.0533125,4.71734375 1.0533125,9.22034375 C1.0533125,13.7233437 4.71675,17.3867812 9.22034375,17.3867812 C13.7233437,17.3867812 17.3867812,13.7233437 17.3867812,9.22034375 C17.3867812,4.71734375 13.7233437,1.0533125 9.22034375,1.0533125 Z" id="Shape"></path>
                        <path d="M12.855875,9.747 L5.5848125,9.747 C5.293875,9.747 5.0575625,9.511875 5.0575625,9.22034375 C5.0575625,8.92940625 5.29328125,8.69309375 5.5848125,8.69309375 L12.855875,8.69309375 C13.1468125,8.69309375 13.3825313,8.92940625 13.3825313,9.22034375 C13.3825313,9.511875 13.1474063,9.747 12.855875,9.747 Z" id="Shape"></path>
                        <path d="M9.22034375,13.3825313 C8.92940625,13.3825313 8.69309375,13.1468125 8.69309375,12.855875 L8.69309375,5.5848125 C8.69309375,5.293875 8.92940625,5.0575625 9.22034375,5.0575625 C9.51128125,5.0575625 9.747,5.293875 9.747,5.5848125 L9.747,12.855875 C9.747,13.1474063 9.511875,13.3825313 9.22034375,13.3825313 Z" id="Shape"></path>
                    </g>
                </g>
            </g>
        </g>
    </g>
</svg>