<?xml version="1.0" encoding="UTF-8"?>
<svg width="16px" height="13px" viewBox="0 0 16 13" version="1.1" xmlns="http://www.w3.org/2000/svg" xmlns:xlink="http://www.w3.org/1999/xlink">
    <!-- Generator: Sketch 41.2 (35397) - http://www.bohemiancoding.com/sketch -->
    <title>photo-camera</title>
    <desc>Created with Sketch.</desc>
    <defs></defs>
    <g id="Page-1" stroke="none" stroke-width="1" fill="none" fill-rule="evenodd">
        <g id="Singup-2" transform="translate(-211.000000, -146.000000)" stroke-width="0.4" stroke="#FFFFFF" fill="#FFFFFF">
            <g id="photo-camera" transform="translate(212.000000, 147.000000)">
                <g id="Capa_1">
                    <g id="Group">
                        <path d="M0,3.46519369 L0,9.6135308 C0,10.5519911 0.762143545,11.3141347 1.70060388,11.3141347 L12.2341102,11.3141347 C13.1725705,11.3141347 13.9347141,10.5519911 13.9347141,9.6135308 L13.9347141,3.46519369 C13.9347141,2.57223447 13.2095402,1.84706057 12.316581,1.84706057 L10.0529009,1.84706057 L9.9988683,1.61102358 C9.77989423,0.664031783 8.9466552,0.0042657288 7.97406903,0.0042657288 L5.95780122,0.0042657288 C4.98805888,0.0042657288 4.15481985,0.664031783 3.93300195,1.61102358 L3.87896939,1.84706057 L1.61813312,1.84706057 C0.725173896,1.84706057 0,2.57507828 0,3.46519369 Z M4.15766367,2.54379627 C4.31976136,2.54379627 4.4591085,2.43288732 4.49607815,2.27363345 L4.61267474,1.76743363 C4.76055334,1.13894959 5.31225426,0.701001433 5.95780122,0.701001433 L7.97406903,0.701001433 C8.61961599,0.701001433 9.17131692,1.13894959 9.31919552,1.76743363 L9.4357921,2.27363345 C9.47276175,2.43004351 9.61210889,2.54379627 9.77420659,2.54379627 L12.3137371,2.54379627 C12.8227808,2.54379627 13.2351346,2.95615006 13.2351346,3.46519369 L13.2351346,9.6135308 C13.2351346,10.1680755 12.7858111,10.617399 12.2312664,10.617399 L1.70060388,10.617399 C1.14605914,10.617399 0.696735704,10.1680755 0.696735704,9.6135308 L0.696735704,3.46519369 C0.696735704,2.95615006 1.10908949,2.54379627 1.61813312,2.54379627 L4.15766367,2.54379627 L4.15766367,2.54379627 Z" id="Shape"></path>
                        <ellipse id="Oval" cx="2.35752612" cy="4.03111371" rx="0.466386349" ry="0.466386349"></ellipse>
                        <path d="M6.96735704,9.52537241 C8.57980252,9.52537241 9.89364699,8.21152794 9.89364699,6.59908245 C9.89364699,4.98663697 8.57980252,3.6727925 6.96735704,3.6727925 C5.35491155,3.6727925 4.04106708,4.98379315 4.04106708,6.59908245 C4.04106708,8.21437176 5.35491155,9.52537241 6.96735704,9.52537241 Z M6.96735704,4.3695282 C8.19588693,4.3695282 9.19691129,5.37055256 9.19691129,6.59908245 C9.19691129,7.82761235 8.19588693,8.8286367 6.96735704,8.8286367 C5.73882714,8.8286367 4.73780279,7.82761235 4.73780279,6.59908245 C4.73780279,5.37055256 5.73882714,4.3695282 6.96735704,4.3695282 Z" id="Shape"></path>
                    </g>
                </g>
            </g>
        </g>
    </g>
</svg>