<?xml version="1.0" encoding="UTF-8"?>
<svg width="24px" height="24px" viewBox="0 0 24 24" version="1.1" xmlns="http://www.w3.org/2000/svg" xmlns:xlink="http://www.w3.org/1999/xlink">
    <!-- Generator: Sketch 41.2 (35397) - http://www.bohemiancoding.com/sketch -->
    <title>Capa_1</title>
    <desc>Created with Sketch.</desc>
    <defs></defs>
    <g id="Page-1" stroke="none" stroke-width="1" fill="none" fill-rule="evenodd">
        <g id="Feed" transform="translate(-220.000000, -968.000000)" fill="#E5E5E5">
            <g id="noti" transform="translate(221.000000, 968.000000)">
                <g id="Capa_1">
                    <g id="qKrwXv.tif">
                        <g id="Group">
                            <path d="M19.6940358,11.2946429 L19.6940358,14.5392857 L19.6940358,19.5819444 C19.6940358,21.5396825 18.2582505,22.9771825 16.3057654,22.9771825 L3.38369781,22.9771825 C1.43578529,22.9771825 0,21.5488095 0,19.6093254 L0,6.65813492 C0,4.76884921 1.44950298,3.32222222 3.34254473,3.32222222 C6.05407555,3.32222222 8.7610338,3.32222222 11.4725646,3.31765873 C11.67833,3.31765873 11.7057654,3.35873016 11.6554672,3.55496032 C11.5548708,3.92460317 11.5,4.30793651 11.5,4.69126984 C11.5,4.91031746 11.4542744,4.96964286 11.2210736,4.96964286 C8.58727634,4.96051587 5.95805169,4.96051587 3.32425447,4.96507937 C2.47375746,4.96507937 1.81530815,5.5172619 1.66441352,6.34325397 C1.64612326,6.45277778 1.6415507,6.56230159 1.6415507,6.67638889 L1.6415507,19.6503968 C1.6415507,20.6361111 2.35029821,21.3480159 3.3333996,21.3480159 L16.383499,21.3480159 C17.3300199,21.3480159 18.0479125,20.6269841 18.0524851,19.6777778 C18.0524851,17.0400794 18.0570577,14.4069444 18.0479125,11.769246 C18.0479125,11.5821429 18.0799205,11.5136905 18.2902584,11.509127 C18.7520875,11.5 19.2093439,11.4178571 19.6940358,11.2946429 Z" id="Shape" stroke="#E5E5E5" stroke-width="0.2"></path>
                            <path d="M18.0387674,9.87083333 C15.2998012,9.85714286 13.1141153,7.6484127 13.127833,4.89662698 C13.1415507,2.22242063 15.3775348,0.0319444444 18.0799205,0.0456349206 C20.805169,0.0638888889 22.9862823,2.27261905 22.9771372,5.00615079 C22.967992,7.68492063 20.7365805,9.88452381 18.0387674,9.87083333 Z" id="Shape"></path>
                            <path d="M14.7693837,4.9422619 C14.7693837,3.15793651 16.2417495,1.68392857 18.0296223,1.68392857 C19.8677932,1.68392857 21.3310139,3.13968254 21.3355865,4.97420635 C21.3355865,6.75396825 19.8586481,8.23253968 18.0753479,8.23253968 C16.2371769,8.23710317 14.7739563,6.77678571 14.7693837,4.9422619 Z" id="Shape"></path>
                        </g>
                    </g>
                </g>
            </g>
        </g>
    </g>
</svg>