<?xml version="1.0" encoding="UTF-8"?>
<svg width="24px" height="24px" viewBox="0 0 24 24" version="1.1" xmlns="http://www.w3.org/2000/svg" xmlns:xlink="http://www.w3.org/1999/xlink">
    <!-- Generator: Sketch 41.2 (35397) - http://www.bohemiancoding.com/sketch -->
    <title>user</title>
    <desc>Created with Sketch.</desc>
    <defs></defs>
    <g id="Page-1" stroke="none" stroke-width="1" fill="none" fill-rule="evenodd">
        <g id="Feed" transform="translate(-327.000000, -968.000000)" stroke-width="0.5" stroke="#E5E5E5" fill="#E5E5E5">
            <g id="Group-7" transform="translate(0.000000, 959.000000)">
                <g id="Group-4">
                    <g id="Group-2" transform="translate(23.000000, 6.000000)">
                        <g id="user" transform="translate(304.376364, 4.000000)">
                            <g id="Capa_1">
                                <g id="User">
                                    <path d="M11.1881818,14.9914504 C14.658616,14.9914504 17.4815341,11.627914 17.4815341,7.49572518 C17.4815341,3.36353632 14.6579167,0 11.1881818,0 C9.47708926,0 7.87787852,0.799998306 6.68633716,2.2521247 C5.53045812,3.65927675 4.89482955,5.52230517 4.89482955,7.49640661 C4.89482955,11.627914 7.71774767,14.9914504 11.1881818,14.9914504 Z M11.1881818,1.36354055 C13.8866314,1.36354055 16.0830114,4.1144717 16.0830114,7.49640661 C16.0830114,10.8776601 13.8866314,13.6292727 11.1881818,13.6292727 C8.48973222,13.6292727 6.29335227,10.8776601 6.29265301,7.49640661 C6.29265301,4.1144717 8.48903295,1.36354055 11.1881818,1.36354055 Z M16.0830114,13.6285912 C15.6963198,13.6285912 15.38375,13.9331903 15.38375,14.3100208 C15.38375,14.6868514 15.6963198,14.9914504 16.0830114,14.9914504 C18.781461,14.9914504 20.9778409,17.1318206 20.9778409,19.7614573 C20.9778409,20.136925 20.6638726,20.4428869 20.2785795,20.4428869 L2.09778409,20.4428869 C1.71249108,20.4428869 1.39852273,20.136925 1.39852273,19.7614573 C1.39852273,17.1318206 3.59490267,14.9914504 6.29335227,14.9914504 C6.68004381,14.9914504 6.99261364,14.6868514 6.99261364,14.3100208 C6.99261364,13.9331903 6.68004381,13.6285912 6.29335227,13.6285912 C2.82291813,13.6285912 0,16.3795224 0,19.7614573 C0,20.8885418 0.941205795,21.805746 2.09778409,21.805746 L20.2785795,21.805746 C21.4351578,21.805746 22.3763636,20.8885418 22.3763636,19.7614573 C22.3763636,16.3802038 19.5534455,13.6285912 16.0830114,13.6285912 Z" id="Shape"></path>
                                </g>
                            </g>
                        </g>
                    </g>
                </g>
            </g>
        </g>
    </g>
</svg>