<?xml version="1.0" encoding="UTF-8"?>
<svg width="18px" height="18px" viewBox="0 0 18 18" version="1.1" xmlns="http://www.w3.org/2000/svg" xmlns:xlink="http://www.w3.org/1999/xlink">
    <!-- Generator: Sketch 41.2 (35397) - http://www.bohemiancoding.com/sketch -->
    <title>export</title>
    <desc>Created with Sketch.</desc>
    <defs></defs>
    <g id="Page-1" stroke="none" stroke-width="1" fill="none" fill-rule="evenodd">
        <g id="Home" transform="translate(-348.000000, -1426.000000)" stroke-width="0.6" stroke="#000000" fill="#000000">
            <g id="export" transform="translate(349.000000, 1427.000000)">
                <g id="Capa_1">
                    <g id="Group">
                        <path d="M11.1152749,1.11771894 L14.0643585,1.11771894 L7.32219959,7.86313646 C7.10386965,8.0814664 7.10386965,8.43665988 7.32219959,8.65498982 C7.42973523,8.76252546 7.57311609,8.81792261 7.71649695,8.81792261 C7.8598778,8.81792261 8.00325866,8.76252546 8.1107943,8.65498982 L14.8562118,1.9095723 L14.8562118,4.8586558 C14.8562118,5.16822811 15.1071283,5.4191446 15.413442,5.4191446 C15.7230143,5.4191446 15.9739308,5.16822811 15.9739308,4.8586558 L15.9739308,0.560488798 C15.9739308,0.250916497 15.7230143,0 15.413442,0 L11.1152749,0 C10.8057026,0 10.5547862,0.250916497 10.5547862,0.560488798 C10.5580448,0.866802444 10.8057026,1.11771894 11.1152749,1.11771894 Z" id="Shape"></path>
                        <path d="M3.35315682,15.9739308 L12.6175153,15.9739308 C14.4684318,15.9739308 15.9706721,14.4684318 15.9706721,12.6207739 L15.9706721,8.25743381 C15.9706721,7.94786151 15.7197556,7.70020367 15.4101833,7.70020367 C15.100611,7.70020367 14.8529532,7.95112016 14.8529532,8.25743381 L14.8529532,12.6175153 C14.8529532,13.8492872 13.8492872,14.8529532 12.6175153,14.8529532 L3.35315682,14.8529532 C2.12138493,14.8529532 1.11771894,13.8492872 1.11771894,12.6175153 L1.11771894,5.25947047 L1.11771894,3.35641548 C1.11771894,2.12464358 2.12138493,1.1209776 3.35315682,1.1209776 L7.67739308,1.1209776 C7.98696538,1.1209776 8.23462322,0.8700611 8.23462322,0.560488798 C8.23462322,0.250916497 7.98370672,0 7.67739308,0 L3.35315682,0 C1.50224033,0 0,1.50549898 0,3.35315682 L0,5.25621181 L0,12.6175153 C0,14.4684318 1.50549898,15.9739308 3.35315682,15.9739308 Z" id="Shape"></path>
                    </g>
                </g>
            </g>
        </g>
    </g>
</svg>